
post_title,post_name,post_parent,ID,post_content,post_excerpt,post_status,post_password,menu_order,post_date,post_author,comment_status,sku,parent_sku,children,downloadable,virtual,stock,regular_price,sale_price,weight,length,width,height,tax_class,visibility,stock_status,backorders,sold_individually,low_stock_amount,manage_stock,tax_status,upsell_ids,crosssell_ids,purchase_note,sale_price_dates_from,sale_price_dates_to,download_limit,download_expiry,product_url,button_text,images,downloadable_files,product_page_url,tax:product_type,tax:product_visibility,tax:product_cat,tax:product_tag,tax:product_shipping_class,attribute:Brand,attribute_data:Brand,attribute_default:Brand,attribute:Size,attribute_data:Size,attribute_default:Size,"attribute:Strain Type","attribute_data:Strain Type","attribute_default:Strain Type",attribute:pa_available-strains,attribute_data:pa_available-strains,attribute_default:pa_available-strains,attribute:pa_size,attribute_data:pa_size,attribute_default:pa_size,attribute:pa_strain-type,attribute_data:pa_strain-type,attribute_default:pa_strain-type
"""Daves Stash"" Pre Rolls",daves-stash-pre-rolls,,423,,,publish,,0,"2021-10-10 00:42:17",1,closed,,,,no,no,,30,,,,,,,,instock,no,no,,no,taxable,,,,,,'-1,'-1,,,,,https://treetop.bytebeardigital.com/shop/flower/daves-stash-pre-rolls/,simple,,Flower,,,,,,,,,,,,,,,,,,Hybrid,0|1|0,
"""Daves Stash"" Treewoods",daves-stash-treewoods,,564,,"<strong>Special: 4/$110</strong>",publish,,0,"2021-10-24 17:34:20",2,closed,,,,no,no,,30,,,,,,,,instock,no,no,,no,taxable,,,,,,'-1,'-1,,,,,https://treetop.bytebeardigital.com/shop/flower/daves-stash-treewoods/,simple,,Flower,,,,,,,,,,,,,,,,,,Hybrid,0|1|0,
"TTD PREROLLS",ttd-prerolls,,565,,,publish,,0,"2021-10-24 17:37:00",2,closed,,,,no,no,,5,,,,,,,,instock,no,no,,no,taxable,,,,,,'-1,'-1,,,,,https://treetop.bytebeardigital.com/shop/flower/ttd-prerolls/,simple,,Flower,,,,,,,,,,,,,,,,,,Hybrid,0|1|0,
